<?xml version="1.0"?>
<svg xmlns:rdf="http://www.w3.org/1999/02/22-rdf-syntax-ns#" xmlns="http://www.w3.org/2000/svg" xmlns:cc="http://creativecommons.org/ns#" xmlns:xlink="http://www.w3.org/1999/xlink" xmlns:dc="http://purl.org/dc/elements/1.1/" id="svg7124" viewBox="0 0 512 512" version="1.1">
 <defs id="defs7126">
  <linearGradient id="linearGradient5714">
   <stop id="stop5716" stop-color="#fff" stop-opacity=".90187" offset="0"/>
   <stop id="stop5718" stop-color="#fff" stop-opacity="0" offset="1"/>
  </linearGradient>
  <linearGradient id="linearGradient3886">
   <stop id="stop3888" offset="0"/>
   <stop id="stop3890" stop-opacity="0" offset="1"/>
  </linearGradient>
  <linearGradient id="linearGradient5999">
   <stop id="stop6001" stop-color="#8d6f1f" offset="0"/>
   <stop id="stop6003" stop-color="#b68c23" offset=".13185"/>
   <stop id="stop6005" stop-color="#cba320" offset=".3124"/>
   <stop id="stop6007" stop-color="#f3c211" offset=".8437"/>
   <stop id="stop6009" stop-color="#f6c00c" offset="1"/>
  </linearGradient>
  <clipPath id="clipPath4244">
   <path id="path4246" d="m484.46 524.34a130.7 130.7 0 1 1 -261.4 0 130.7 130.7 0 1 1 261.4 0z" fill="url(#linearGradient4248)" transform="matrix(-1.6986 0 0 -1.6986 -1047.2 2009)"/>
  </clipPath>
  <clipPath id="clipPath5940" clipPathUnits="userSpaceOnUse">
   <rect id="rect5942" rx="28.445" ry="34.054" transform="scale(-1)" width="68.108" y="619.81" x="-416.15" height="399.84" fill="url(#linearGradient5944)"/>
  </clipPath>
  <linearGradient id="linearGradient5944" y2="766.97" xlink:href="#linearGradient5999" gradientUnits="userSpaceOnUse" x2="-892.06" gradientTransform="matrix(.61358 0 0 .61358 194.47 404.93)" y1="766.97" x1="-992.45"/>
  <filter id="filter5918">
   <feGaussianBlur id="feGaussianBlur5920" stdDeviation="0.72102957"/>
  </filter>
  <radialGradient id="radialGradient23003" fx="226.5" fy="449.28" xlink:href="#linearGradient3886" gradientUnits="userSpaceOnUse" cy="484" cx="124" gradientTransform="matrix(1 0 0 .25203 0 362.02)" r="184.5"/>
  <radialGradient id="radialGradient23007" fx="126.3" fy="441.38" xlink:href="#linearGradient3886" gradientUnits="userSpaceOnUse" cy="484" cx="124" gradientTransform="matrix(1 0 0 .25203 0 362.02)" r="184.5"/>
  <linearGradient id="linearGradient23015" y2="950.71" xlink:href="#linearGradient5714" gradientUnits="userSpaceOnUse" x2="-387.32" gradientTransform="matrix(-.93852 0 0 -.93852 23.491 -61.004)" y1="943.8" x1="-355.62"/>
  <linearGradient id="linearGradient23017" y2="867.84" gradientUnits="userSpaceOnUse" x2="-343.62" gradientTransform="matrix(-.93852 0 0 -.93852 23.491 -61.004)" y1="979.96" x1="-408.36">
   <stop id="stop8262" stop-color="#2d2d2d" stop-opacity=".38318" offset="0"/>
   <stop id="stop8264" stop-color="#2d2d2d" stop-opacity="0" offset="1"/>
  </linearGradient>
  <radialGradient id="radialGradient23045" gradientUnits="userSpaceOnUse" cy="837.99" cx="-382.09" gradientTransform="matrix(1 0 0 .70894 0 248.15)" r="34.054">
   <stop id="stop6029" stop-color="#fff" stop-opacity=".57477" offset="0"/>
   <stop id="stop6031" stop-color="#fff" stop-opacity="0" offset="1"/>
  </radialGradient>
  <radialGradient id="radialGradient23047" gradientUnits="userSpaceOnUse" cy="838.17" cx="-401.39" gradientTransform="matrix(1.7644 0 0 .68422 308.1 269.94)" r="34.054">
   <stop id="stop4538" offset="0"/>
   <stop id="stop4540" stop-opacity="0" offset="1"/>
  </radialGradient>
  <radialGradient id="radialGradient23559" gradientUnits="userSpaceOnUse" cy="622.86" cx="463.39" gradientTransform="matrix(.38597 0 0 -.22105 13.911 294.06)" r="130.7">
   <stop id="stop6592" stop-color="#dedede" offset="0"/>
   <stop id="stop6594" stop-color="#1b1b1b" offset=".87729"/>
   <stop id="stop6596" stop-color="#6e6e6e" offset="1"/>
  </radialGradient>
  <radialGradient id="radialGradient23562" fx="193.62" fy="158.82" gradientUnits="userSpaceOnUse" cy="166.07" cx="193.97" gradientTransform="matrix(1.1934 0 0 1.1934 -41.505 -16.297)" r="13.476">
   <stop id="stop15120" stop-opacity="0" offset="0"/>
   <stop id="stop15126" stop-opacity=".10132" offset=".73612"/>
   <stop id="stop15122" stop-opacity=".70339" offset="1"/>
  </radialGradient>
  <radialGradient id="radialGradient23565" gradientUnits="userSpaceOnUse" cy="2381.4" cx="52.23" gradientTransform="matrix(-.10722 -.10722 1.3452 -1.3452 -2863.7 3450)" r="130.58">
   <stop id="stop7533" stop-color="#fafafa" offset="0"/>
   <stop id="stop7535" stop-color="#a8a8a8" offset=".69175"/>
   <stop id="stop7537" stop-color="#e1e1e1" offset="1"/>
  </radialGradient>
  <radialGradient id="radialGradient23568" gradientUnits="userSpaceOnUse" cy="421.62" cx="453.17" gradientTransform="matrix(.15799 .15799 .15799 -.15799 50.603 196.08)" r="130.7">
   <stop id="stop7429" stop-color="#b8b8b8" offset="0"/>
   <stop id="stop7431" stop-color="#292929" offset=".87729"/>
   <stop id="stop7433" stop-color="#5e5e5e" offset="1"/>
  </radialGradient>
  <radialGradient id="radialGradient23572" gradientUnits="userSpaceOnUse" cy="2347.5" cx="52.517" gradientTransform="matrix(-.10722 -.10722 1.3452 -1.3452 -2863.7 3450)" r="130.58">
   <stop id="stop10265" stop-color="#fff" offset="0"/>
   <stop id="stop10267" stop-color="#878787" offset=".65333"/>
   <stop id="stop10269" stop-color="#d1d1d1" offset="1"/>
  </radialGradient>
  <linearGradient id="linearGradient23575" y2="3341.2" gradientUnits="userSpaceOnUse" x2="-241.49" gradientTransform="matrix(.62240 0 0 .62240 423.14 -1792)" y1="3352.7" x1="-230.01">
   <stop id="stop5224" stop-color="#646464" offset="0"/>
   <stop id="stop5226" stop-color="#cbcbcb" stop-opacity="0" offset="1"/>
  </linearGradient>
  <linearGradient id="linearGradient23578" y2="1428.7" gradientUnits="userSpaceOnUse" x2="-1648.1" gradientTransform="matrix(.44010 -.44010 .44010 .44010 423.14 -1035.7)" y1="948.35" x1="-1648.1">
   <stop id="stop7416" stop-color="#e5e5e5" offset="0"/>
   <stop id="stop7418" stop-color="#fff" offset=".23902"/>
   <stop id="stop7420" stop-color="#bfbfbf" offset=".77396"/>
   <stop id="stop7422" stop-color="#f0f0f0" offset="1"/>
  </linearGradient>
  <linearGradient id="linearGradient23582" y2="3319.6" gradientUnits="userSpaceOnUse" x2="-47.871" gradientTransform="matrix(.57010 0 0 .57010 400.81 -1627.1)" y1="3186.3" x1="-545.37">
   <stop id="stop5750" offset="0"/>
   <stop id="stop5752" stop-opacity="0" offset="1"/>
  </linearGradient>
  <linearGradient id="linearGradient23586" y2="2192.3" xlink:href="#linearGradient3886" gradientUnits="userSpaceOnUse" x2="-256.11" gradientTransform="matrix(.62240 0 0 .62240 423.14 -1035.7)" y1="2028.1" x1="-161.3"/>
  <linearGradient id="linearGradient23589" y2="2172.6" xlink:href="#linearGradient3886" gradientUnits="userSpaceOnUse" x2="-177.71" gradientTransform="matrix(.62240 0 0 .62240 423.14 -1035.7)" y1="2138.2" x1="-237.19"/>
  <linearGradient id="linearGradient23592" y2="678.24" gradientUnits="userSpaceOnUse" x2="-1182.6" gradientTransform="matrix(.62240 0 0 .62240 590.63 37.702)" y1="678.24" x1="-726.54">
   <stop id="stop9767" stop-color="#a4a4a4" offset="0"/>
   <stop id="stop9769" stop-color="#eee" offset=".45773"/>
   <stop id="stop9771" stop-color="#808080" offset=".59495"/>
   <stop id="stop9773" stop-color="#c4c4c4" offset="1"/>
  </linearGradient>
  <linearGradient id="linearGradient23595" y2="165.97" spreadMethod="reflect" gradientUnits="userSpaceOnUse" x2="97.1" gradientTransform="matrix(-1.0106 0 0 1.0106 385.98 14.048)" y1="165.97" x1="28.417">
   <stop id="stop15132" stop-color="#e5e5e5" offset="0"/>
   <stop id="stop15134" stop-color="#fff" offset="1"/>
  </linearGradient>
  <radialGradient id="radialGradient23598" gradientUnits="userSpaceOnUse" cy="373.67" cx="468.41" gradientTransform="matrix(-1.9069 2.8806 -10.844 -7.1783 5152 1361.9)" r="131.23">
   <stop id="stop18209" stop-color="#b1b1b1" offset="0"/>
   <stop id="stop18211" stop-color="#f5f5f5" offset=".30605"/>
   <stop id="stop18213" stop-color="#9e9e9e" offset=".62386"/>
   <stop id="stop18215" stop-color="#fff" offset="1"/>
  </radialGradient>
  <linearGradient id="linearGradient23612" y2="766.97" xlink:href="#linearGradient5999" gradientUnits="userSpaceOnUse" x2="-892.06" gradientTransform="matrix(.62240 0 0 .62240 590.63 7.7732)" y1="766.97" x1="-992.45"/>
  <linearGradient id="linearGradient23615" y2="353.37" gradientUnits="userSpaceOnUse" x2="353.76" gradientTransform="matrix(-.67183 .67183 -.67183 -.67183 779.91 296.39)" y1="690.85" x1="353.76">
   <stop id="stop5173" stop-color="#5b5b5b" offset="0"/>
   <stop id="stop5175" stop-color="#fff" offset=".39154"/>
   <stop id="stop5177" stop-color="#d5d5d5" offset=".68252"/>
   <stop id="stop5179" stop-color="#3f3f3f" offset="1"/>
  </linearGradient>
  <linearGradient id="linearGradient23619" y2="974.57" gradientUnits="userSpaceOnUse" x2="219.94" gradientTransform="matrix(1.0144 0 0 1.0144 -6.7848 -563.1)" y1="742.45" x1="219.94">
   <stop id="stop4037" stop-color="#fff" offset="0"/>
   <stop id="stop4039" stop-color="#5e5e5e" offset=".80376"/>
   <stop id="stop4041" stop-color="#fff" offset="1"/>
  </linearGradient>
  <radialGradient id="radialGradient23770" xlink:href="#linearGradient5714" gradientUnits="userSpaceOnUse" cy="-866.01" cx="397.59" gradientTransform="matrix(1.471 0 0 3.9914 -201.77 2454.1)" r="34.054"/>
  <radialGradient id="radialGradient23778" gradientUnits="userSpaceOnUse" cy="-888.32" cx="386.21" gradientTransform="matrix(.53787 2.0074 -.90101 .24143 -601.46 -1572)" r="34.054">
   <stop id="stop23774" stop-opacity=".22353" offset="0"/>
   <stop id="stop23776" stop-opacity="0" offset="1"/>
  </radialGradient>
  <filter id="filter6401">
   <feGaussianBlur id="feGaussianBlur6403" stdDeviation="4.2778322"/>
  </filter>
  <filter id="filter6417">
   <feGaussianBlur id="feGaussianBlur6419" stdDeviation="2.8875367"/>
  </filter>
 </defs>
 <rect id="rect4245" opacity="0" ry="0" rx="0" transform="scale(1,-1)" height="798" width="1821.2" y="-678" x="-190"/>
 <path id="path6846" opacity=".061674" d="m308 484a184 46 0 1 1 -368 0 184 46 0 1 1 368 0z" fill="url(#radialGradient23003)" transform="matrix(1.151 0 0 .44452 117.68 241.81)"/>
 <path id="path6848" opacity=".057269" d="m308 484a184 46 0 1 1 -368 0 184 46 0 1 1 368 0z" fill="url(#radialGradient23003)" transform="matrix(.63034 0 0 .16737 273.38 372.15)"/>
 <path id="path6850" opacity=".099526" d="m308 484a184 46 0 1 1 -368 0 184 46 0 1 1 368 0z" fill="url(#radialGradient23007)" transform="matrix(.26390 0 0 .077607 390.62 416.03)"/>
 <rect id="rect6868" rx="28.445" ry="34.054" transform="rotate(-45)" width="69.086" y="225.75" x="-28.752" height="405.58" fill="url(#linearGradient23612)"/>
 <rect id="rect6874" opacity=".40088" height="378.08" clip-path="url(#clipPath5940)" rx="28.781" transform="matrix(-.71727 .71727 -.71727 -.71727 -6.7848 -563.1)" ry="28.781" filter="url(#filter6401)" width="63.92" stroke="url(#linearGradient23017)" y="-1020.8" x="350.13" stroke-width="3.7009" fill="none"/>
 <rect id="rect23768" opacity=".47577" height="378.08" clip-path="url(#clipPath5940)" rx="28.781" ry="28.781" transform="matrix(-.71240 .71240 -.71240 -.71240 -5.6323 -556.2)" filter="url(#filter5918)" width="63.92" stroke="url(#radialGradient23770)" y="-1020.8" x="350.13" stroke-width="3.7013" fill="url(#radialGradient23778)"/>
 <rect id="rect6870" transform="matrix(-.71240 .71240 -.71240 -.71240 -5.6323 -556.2)" clip-path="url(#clipPath5940)" rx="28.781" ry="28.781" height="378.08" filter="url(#filter6417)" width="63.92" stroke="url(#linearGradient23015)" y="-1020.8" x="350.13" stroke-width="3.7013" fill="none"/>
 <path id="path6862" d="m363.11 213.01c-2.2001-1.2702-20.183 11.938-26.259 18.014l-99.174 99.174c-8.5681 9.5225-21.05 19.441-21.05 29.319z" fill="url(#linearGradient23619)"/>
 <path id="path6864" opacity=".22275" d="m202.62 171.97a17.876 17.876 0 0 1 -25.28 25.28 17.876 17.876 0 1 1 25.28 -25.28z" stroke="#000" stroke-width="1.5906" fill="none"/>
 <path id="path6866" d="m102.17 269.59a124.18 124.18 0 0 1 175.61 -175.61 124.18 124.18 0 0 1 -175.61 175.61z" fill="url(#linearGradient23615)"/>
 <path id="path6880" d="m271.05 96.507a117.67 117.67 0 1 1 -162.15 170.56 117.67 117.67 0 0 1 162.15 -170.56z" fill="url(#radialGradient23598)"/>
 <path id="path6882" d="m109.17 96.822a117.23 117.23 0 0 0 161.55 169.93 117.23 117.23 0 1 0 -161.55 -169.93z" stroke="url(#linearGradient23595)" stroke-width=".57" fill="none"/>
 <rect id="rect6884" transform="rotate(-45)" height="42.903" width="69.086" y="406.96" x="-28.752" fill="url(#linearGradient23592)"/>
 <path id="path15286" opacity=".77093" d="m326.16 269.12 36.472 35.965-0.68041 97.473-84.131-84.311z" fill="url(#linearGradient23589)"/>
 <path id="path6886" opacity=".39179" d="m326.16 269.12 36.472 35.965-0.68041 97.473-84.131-84.311z" fill="url(#linearGradient23586)"/>
 <path id="path6888" d="m211.06 160.7a29.819 29.819 0 0 1 -42.17 42.17 29.819 29.819 0 1 1 42.17 -42.17z" fill="#fff" fill-opacity=".45455"/>
 <path id="path6890" opacity=".17669" d="m186.01 170.37 93.082 93.699c-4.8037 11.818-44.435 36.03-46.576 33.14l-75.053-101.31z" fill="url(#linearGradient23582)"/>
 <path id="path6892" opacity=".079295" d="m-1646.9 1059.6c30.747 0 55.65 24.753 55.5 55.5l5.221 256.65-125.42-18.265 9.1987-238.38c1.1856-30.724 24.753-55.5 55.5-55.5z" clip-path="url(#clipPath4244)" fill-opacity=".56061" transform="matrix(.39570 -.39570 .39570 .39570 398.31 -912.46)" stroke="#000" stroke-width="13.017"/>
 <path id="path6894" d="m164.54 157.37c13.532-13.532 35.255-13.467 48.851 0l106.6 105.58-48.851 48.851-106.6-105.58c-13.596-13.467-13.532-35.32 0-48.851z" stroke="#fff" stroke-width=".61358" fill="url(#linearGradient23578)"/>
 <path id="path6896" opacity=".59471" d="m311.25 252.18 9.7609 9.7609-50.88 50.88-13.705-13.705z" fill="url(#linearGradient23575)"/>
 <path id="path6898" d="m216.56 359.55c10.493 10.493 23.553-0.68557 33.376-10.508l99.174-99.174c12.758-12.758 25.593-25.283 14.004-36.872z" fill="url(#radialGradient23572)"/>
 <path id="path6900" d="m200.53 193.25a14.92 14.92 0 1 0 -21.1 -21.1 14.92 14.92 0 1 0 21.1 21.1z" fill="#fff"/>
 <path id="path6902" d="m200.53 192.43a14.92 14.92 0 1 0 -21.1 -21.1 14.92 14.92 0 0 0 21.1 21.1z" fill="url(#radialGradient23568)"/>
 <path id="path6904" d="m216.56 359.55c10.493 10.493 22.539-1.7 32.362-11.522l99.174-99.174c12.758-12.758 26.608-24.269 15.019-35.858z" fill="url(#radialGradient23565)"/>
 <path id="path15116" d="m200.45 192.36a14.811 14.811 0 1 0 -20.946 -20.946 14.811 14.811 0 0 0 20.946 20.946z" stroke="#fff" stroke-width=".5" fill="url(#radialGradient23562)"/>
 <path id="path6906" d="m200.41 192.32a14.761 14.761 0 1 0 -20.875 -20.875 14.761 14.761 0 1 0 20.875 20.875z" fill="url(#radialGradient23559)"/>
 <g id="g6908" transform="matrix(1.0144 0 0 1.0144 -7.3227 -563.82)">
  <rect id="rect6910" opacity=".18502" transform="rotate(-45)" height="1.1042" width="68.108" y="840.53" x="-416.15" fill="url(#radialGradient23045)"/>
  <rect id="rect6912" opacity=".18502" transform="rotate(-45)" height="1.2292" width="68.108" y="841.61" x="-415.57" fill="url(#radialGradient23047)"/>
  <rect id="rect15304" opacity=".18502" transform="rotate(-45)" height="1.1042" width="68.108" y="840.53" x="-416.15" fill="url(#radialGradient23045)"/>
 </g>
 <g id="g6916" fill="#fff" transform="matrix(.24387 0 0 .24387 198.33 -42.311)">
  <g id="g6920" opacity=".5" transform="matrix(.28672 0 0 .28672 212.08 873.4)" fill="#fff">
   <path id="path6922" d="m448.22-200.44c-9.6438 0-19.267 3.6733-26.625 11.031-14.716 14.716-14.716 38.565 0 53.281 12.32 12.32 31.031 14.308 45.438 6l-26-25.75c-3.8431-3.8066-3.8249-9.9876 0-13.812 3.8249-3.8249 9.9694-3.8065 13.812 0l26 25.781c8.3484-14.415 6.3683-33.163-5.9688-45.5-7.358-7.358-17.012-11.031-26.656-11.031z" transform="matrix(3.4877 0 0 3.4877 -1402.3 1803)"/>
   <path id="path6924" d="m484.46 524.34a130.7 130.7 0 1 1 -261.4 0 130.7 130.7 0 1 1 261.4 0z" transform="matrix(.098191 .098191 .098191 -.098191 74.752 1252.1)"/>
   <path id="path6926" d="m469.06-128.12-7.3438 7.3125c-2.4192 2.6887-5.9612 5.4922-5.9688 8.2812 2.966 2.966 6.6611-0.19234 9.4375-2.9688l8.25-8.25 34.625 34.625c3.8249 3.8249 9.4926 4.3199 12.688 1.125l2.25-2.25c3.1949-3.1949 2.6999-8.8626-1.125-12.688l-34.625-34.625 5.9688-5.9688c3.6062-3.6062 7.2132-7.1305 3.9375-10.406l-0.125 0.125c-2.5875 0.74394-5.5893 3.2768-7.2812 4.9688l-6.875 6.9062z" transform="matrix(3.4877 0 0 3.4877 -1402.3 1803)"/>
  </g>
 </g>
 <g id="g6928" opacity=".39207" transform="matrix(.24387 0 0 .24387 198.33 -43.071)">
  <g id="g6932" opacity=".5" transform="matrix(.28672 0 0 .28672 212.08 873.4)">
   <path id="path6934" d="m448.22-200.44c-9.6438 0-19.267 3.6733-26.625 11.031-14.716 14.716-14.716 38.565 0 53.281 12.32 12.32 31.031 14.308 45.438 6l-26-25.75c-3.8431-3.8066-3.8249-9.9876 0-13.812 3.8249-3.8249 9.9694-3.8065 13.812 0l26 25.781c8.3484-14.415 6.3683-33.163-5.9688-45.5-7.358-7.358-17.012-11.031-26.656-11.031z" transform="matrix(3.4877 0 0 3.4877 -1402.3 1803)"/>
   <path id="path6936" d="m484.46 524.34a130.7 130.7 0 1 1 -261.4 0 130.7 130.7 0 1 1 261.4 0z" transform="matrix(.098191 .098191 .098191 -.098191 74.752 1252.1)"/>
   <path id="path6938" d="m469.06-128.12-7.3438 7.3125c-2.4192 2.6887-5.9612 5.4922-5.9688 8.2812 2.966 2.966 6.6611-0.19234 9.4375-2.9688l8.25-8.25 34.625 34.625c3.8249 3.8249 9.4926 4.3199 12.688 1.125l2.25-2.25c3.1949-3.1949 2.6999-8.8626-1.125-12.688l-34.625-34.625 5.9688-5.9688c3.6062-3.6062 7.2132-7.1305 3.9375-10.406l-0.125 0.125c-2.5875 0.74394-5.5893 3.2768-7.2812 4.9688l-6.875 6.9062z" transform="matrix(3.4877 0 0 3.4877 -1402.3 1803)"/>
  </g>
 </g>
 <metadata>
  <rdf:RDF>
   <cc:Work>
    <dc:format>image/svg+xml</dc:format>
    <dc:type rdf:resource="http://purl.org/dc/dcmitype/StillImage"/>
    <cc:license rdf:resource="http://creativecommons.org/licenses/publicdomain/"/>
    <dc:publisher>
     <cc:Agent rdf:about="http://openclipart.org/">
      <dc:title>Openclipart</dc:title>
     </cc:Agent>
    </dc:publisher>
   </cc:Work>
   <cc:License rdf:about="http://creativecommons.org/licenses/publicdomain/">
    <cc:permits rdf:resource="http://creativecommons.org/ns#Reproduction"/>
    <cc:permits rdf:resource="http://creativecommons.org/ns#Distribution"/>
    <cc:permits rdf:resource="http://creativecommons.org/ns#DerivativeWorks"/>
   </cc:License>
  </rdf:RDF>
 </metadata>
</svg>
