<?xml version="1.0"?>
<svg xmlns:rdf="http://www.w3.org/1999/02/22-rdf-syntax-ns#" xmlns="http://www.w3.org/2000/svg" xmlns:cc="http://creativecommons.org/ns#" xmlns:xlink="http://www.w3.org/1999/xlink" xmlns:dc="http://purl.org/dc/elements/1.1/" id="svg3824" viewBox="0 0 256 256" version="1.1">
 <defs id="defs3826">
  <linearGradient id="linearGradient4430" x1="539.9" gradientUnits="userSpaceOnUse" x2="610.1" y1="405.86" y2="405.86">
   <stop id="stop4121" stop-color="#999" offset="0"/>
   <stop id="stop4166" stop-color="#ccc" offset=".080846"/>
   <stop id="stop4170" stop-color="#bcbcbc" offset=".27981"/>
   <stop id="stop4164" stop-color="#acacac" offset=".50458"/>
   <stop id="stop4168" stop-color="#b6b6b6" offset=".75713"/>
   <stop id="stop4162" stop-color="#f9f9f9" offset=".89539"/>
   <stop id="stop4123" stop-color="#e6e6e6" offset="1"/>
  </linearGradient>
  <radialGradient id="radialGradient4432" gradientUnits="userSpaceOnUse" cy="458.48" cx="575" gradientTransform="matrix(1 0 0 .26334 0 337.75)" r="34.1">
   <stop id="stop4156" stop-color="#e6e6e6" offset="0"/>
   <stop id="stop4158" stop-color="#b3b3b3" offset="1"/>
  </radialGradient>
  <linearGradient id="linearGradient4434" x1="539.9" gradientUnits="userSpaceOnUse" x2="610.1" y1="397.28" y2="397.28">
   <stop id="stop4174" stop-color="#d2d2d2" offset="0"/>
   <stop id="stop4176" stop-color="#f3f3f3" offset=".080846"/>
   <stop id="stop4178" stop-color="#bcbcbc" offset=".27981"/>
   <stop id="stop4180" stop-color="#fafafa" offset=".50458"/>
   <stop id="stop4182" stop-color="#e6e6e6" offset=".75713"/>
   <stop id="stop4184" stop-color="#f9f9f9" offset=".89539"/>
   <stop id="stop4186" stop-color="#fff" offset="1"/>
  </linearGradient>
  <linearGradient id="linearGradient4436" x1="610.01" gradientUnits="userSpaceOnUse" x2="539.84" y1="406.42" y2="406.42">
   <stop id="stop4206" stop-color="#848484" offset="0"/>
   <stop id="stop4208" stop-color="#bababa" offset=".080846"/>
   <stop id="stop4210" stop-color="#686868" offset=".27981"/>
   <stop id="stop4212" stop-color="#787878" offset=".50458"/>
   <stop id="stop4214" stop-color="#8d8d8d" offset=".75713"/>
   <stop id="stop4216" stop-color="#bbb" offset=".89539"/>
   <stop id="stop4218" stop-color="#616161" offset="1"/>
  </linearGradient>
  <linearGradient id="linearGradient4438" x1="609.74" gradientUnits="userSpaceOnUse" x2="539.96" y1="406.15" y2="406.15">
   <stop id="stop4190" stop-color="#2c2c2c" offset="0"/>
   <stop id="stop4192" stop-color="#bebebe" offset=".080846"/>
   <stop id="stop4194" stop-color="#3e3e3e" offset=".27981"/>
   <stop id="stop4196" stop-color="#373737" offset=".50458"/>
   <stop id="stop4198" stop-color="gray" offset=".75713"/>
   <stop id="stop4200" stop-color="gray" offset=".89539"/>
   <stop id="stop4202" stop-color="#171717" offset="1"/>
  </linearGradient>
 </defs>
 <g id="layer1" transform="translate(0 -796.36)">
  <g id="g4377" stroke-linejoin="round" stroke="#302c29" stroke-linecap="round" transform="matrix(2.1924 0 0 2.543 -393.93 -205.31)">
   <g id="g4249" transform="matrix(.60206 0 0 -.51497 -72.383 636.95)">
    <path id="path4251" stroke-width=".67808" fill="url(#linearGradient4430)" d="m575.06 353.36c-32.539 0.25758-34.966 8.7216-34.966 8.7216l-0.09 16.33 1.0168 0.98569v1.9728l-1.0168 0.99255v16l1 1v2l-0.95278 0.87901-0.0472 16.121 1 1v2l-1 1-0.00002 16 1 1v2l-1 1v16s2.544-5.4028 34.791-5.7167l0.20933-0.0616 0.20934 0.0616c32.42-0.23 34.79 5.72 34.79 5.72v-16l-1-1v-2l1-1v-16l-1-1v-2l1-1v-16l-1-1v-2l1.005-0.98468-0.005-16.015-0.99996-1v-2l1-0.96539-0.0995-16.313s-2.9005-8.7216-34.836-8.7216z"/>
    <path id="path4253" stroke-width=".67808" fill="url(#radialGradient4432)" d="m609 459.36c0 3.0341-14.66 9.998-33.935 9.998s-34.065-6.2654-34.065-9.998c0-5.4292 14.725-9.7611 34-9.7611s34 4.3319 34 9.7611z"/>
    <g id="g4255" stroke-width=".42606">
     <path id="path4257" fill="url(#linearGradient4434)" d="m575.06 352.19c-23.95 0-34.06 8.19-34.06 8.19l-0.90625 1.7188s11.283-8.75 34.969-8.75c23.685 0 34.844 8.75 34.844 8.75l-0.9-1.72s-9.9844-8.1875-33.938-8.1875zm0 22.156c-23.95-0.01-34.06 7.03-34.06 7.03l-1 1s11.377-7.0312 35.062-7.0312 34.938 7.0312 34.938 7.0312l-1-1s-9.9844-7.0312-33.938-7.0312zm0 20c-23.95-0.01-34.06 7.03-34.06 7.03l-1 1s11.377-7.0312 35.062-7.0312 34.938 7.0312 34.938 7.0312l-1-1s-9.9844-7.0312-33.938-7.0312zm0 20c-23.95-0.01-34.06 7.03-34.06 7.03l-1 1s11.377-7.0312 35.062-7.0312 34.938 7.0312 34.938 7.0312l-1-1s-9.9844-7.0312-33.938-7.0312zm0 20c-23.95-0.01-34.06 7.03-34.06 7.03l-1 1s11.377-7.0312 35.062-7.0312 34.938 7.0312 34.938 7.0312l-1-1s-9.9844-7.0312-33.938-7.0312z"/>
     <path id="path4259" fill="url(#linearGradient4436)" d="m575.06 372.34c-23.85 0-34.06 7.04-34.06 7.04v2s10.31-7.0356 34.062-7.0312c23.76 0 33.94 7.03 33.94 7.03v-2s-10.084-7.0312-33.938-7.0312zm0 20c-23.85 0-34.06 7.04-34.06 7.04v2s10.31-7.0356 34.062-7.0312c23.76 0 33.94 7.03 33.94 7.03v-2s-10.084-7.0312-33.938-7.0312zm0 20c-23.85 0-34.06 7.04-34.06 7.04v2s10.31-7.0356 34.062-7.0312c23.76 0 33.94 7.03 33.94 7.03v-2s-10.084-7.0312-33.938-7.0312zm0 20c-23.85 0-34.06 7.04-34.06 7.04v2s10.31-7.0356 34.062-7.0312c23.76 0 33.94 7.03 33.94 7.03v-2s-10.084-7.0312-33.938-7.0312z"/>
     <path id="path4261" fill="url(#linearGradient4438)" d="m575.06 371.34c-23.65 0-35.06 7.04-35.06 7.04l1 1s10.179-7.035 34.062-7.0312c23.89 0 33.94 7.03 33.94 7.03l1-1s-11.285-7.0275-34.938-7.0312zm0 20c-23.65 0-35.06 7.04-35.06 7.04l1 1s10.179-7.035 34.062-7.0312c23.89 0 33.94 7.03 33.94 7.03l1-1s-11.285-7.0275-34.938-7.0312zm0 20c-23.65 0-35.06 7.04-35.06 7.04l1 1s10.179-7.035 34.062-7.0312c23.89 0 33.94 7.03 33.94 7.03l1-1s-11.285-7.0275-34.938-7.0312zm0 20c-23.65 0-35.06 7.04-35.06 7.04l1 1s10.179-7.035 34.062-7.0312c23.89 0 33.94 7.03 33.94 7.03l1-1s-11.285-7.0275-34.938-7.0312zm0 17.188c-28.6 0-35.06 9.85-35.06 9.85l1 1s5.711-9.8482 34.062-9.8438c28.35 0 33.94 9.84 33.94 9.84l1-1s-6.334-9.8438-34.938-9.8438z"/>
    </g>
   </g>
   <g id="g4191" transform="matrix(.71617 0 0 -.61257 -205.44 688.36)">
    <path id="path4193" stroke-width=".67808" fill="url(#linearGradient4430)" d="m575.06 353.36c-32.539 0.25758-34.966 8.7216-34.966 8.7216l-0.09 16.33 1.0168 0.98569v1.9728l-1.0168 0.99255v16l1 1v2l-0.95278 0.87901-0.0472 16.121 1 1v2l-1 1-0.00002 16 1 1v2l-1 1v16s2.544-5.4028 34.791-5.7167l0.20933-0.0616 0.20934 0.0616c32.42-0.23 34.79 5.72 34.79 5.72v-16l-1-1v-2l1-1v-16l-1-1v-2l1-1v-16l-1-1v-2l1.005-0.98468-0.005-16.015-0.99996-1v-2l1-0.96539-0.0995-16.313s-2.9005-8.7216-34.836-8.7216z"/>
    <path id="path4195" stroke-width=".67808" fill="url(#radialGradient4432)" d="m609 459.36c0 3.0341-14.66 9.998-33.935 9.998s-34.065-6.2654-34.065-9.998c0-5.4292 14.725-9.7611 34-9.7611s34 4.3319 34 9.7611z"/>
    <g id="g4197" stroke-width=".42606">
     <path id="path4199" fill="url(#linearGradient4434)" d="m575.06 352.19c-23.95 0-34.06 8.19-34.06 8.19l-0.90625 1.7188s11.283-8.75 34.969-8.75c23.685 0 34.844 8.75 34.844 8.75l-0.9-1.72s-9.9844-8.1875-33.938-8.1875zm0 22.156c-23.95-0.01-34.06 7.03-34.06 7.03l-1 1s11.377-7.0312 35.062-7.0312 34.938 7.0312 34.938 7.0312l-1-1s-9.9844-7.0312-33.938-7.0312zm0 20c-23.95-0.01-34.06 7.03-34.06 7.03l-1 1s11.377-7.0312 35.062-7.0312 34.938 7.0312 34.938 7.0312l-1-1s-9.9844-7.0312-33.938-7.0312zm0 20c-23.95-0.01-34.06 7.03-34.06 7.03l-1 1s11.377-7.0312 35.062-7.0312 34.938 7.0312 34.938 7.0312l-1-1s-9.9844-7.0312-33.938-7.0312zm0 20c-23.95-0.01-34.06 7.03-34.06 7.03l-1 1s11.377-7.0312 35.062-7.0312 34.938 7.0312 34.938 7.0312l-1-1s-9.9844-7.0312-33.938-7.0312z"/>
     <path id="path4201" fill="url(#linearGradient4436)" d="m575.06 372.34c-23.85 0-34.06 7.04-34.06 7.04v2s10.31-7.0356 34.062-7.0312c23.76 0 33.94 7.03 33.94 7.03v-2s-10.084-7.0312-33.938-7.0312zm0 20c-23.85 0-34.06 7.04-34.06 7.04v2s10.31-7.0356 34.062-7.0312c23.76 0 33.94 7.03 33.94 7.03v-2s-10.084-7.0312-33.938-7.0312zm0 20c-23.85 0-34.06 7.04-34.06 7.04v2s10.31-7.0356 34.062-7.0312c23.76 0 33.94 7.03 33.94 7.03v-2s-10.084-7.0312-33.938-7.0312zm0 20c-23.85 0-34.06 7.04-34.06 7.04v2s10.31-7.0356 34.062-7.0312c23.76 0 33.94 7.03 33.94 7.03v-2s-10.084-7.0312-33.938-7.0312z"/>
     <path id="path4203" fill="url(#linearGradient4438)" d="m575.06 371.34c-23.65 0-35.06 7.04-35.06 7.04l1 1s10.179-7.035 34.062-7.0312c23.89 0 33.94 7.03 33.94 7.03l1-1s-11.285-7.0275-34.938-7.0312zm0 20c-23.65 0-35.06 7.04-35.06 7.04l1 1s10.179-7.035 34.062-7.0312c23.89 0 33.94 7.03 33.94 7.03l1-1s-11.285-7.0275-34.938-7.0312zm0 20c-23.65 0-35.06 7.04-35.06 7.04l1 1s10.179-7.035 34.062-7.0312c23.89 0 33.94 7.03 33.94 7.03l1-1s-11.285-7.0275-34.938-7.0312zm0 20c-23.65 0-35.06 7.04-35.06 7.04l1 1s10.179-7.035 34.062-7.0312c23.89 0 33.94 7.03 33.94 7.03l1-1s-11.285-7.0275-34.938-7.0312zm0 17.188c-28.6 0-35.06 9.85-35.06 9.85l1 1s5.711-9.8482 34.062-9.8438c28.35 0 33.94 9.84 33.94 9.84l1-1s-6.334-9.8438-34.938-9.8438z"/>
    </g>
   </g>
   <g id="g4225" transform="matrix(.81087 0 0 -.69358 -224.03 737.5)">
    <path id="path4227" stroke-width=".67808" fill="url(#linearGradient4430)" d="m575.06 353.36c-32.539 0.25758-34.966 8.7216-34.966 8.7216l-0.09 16.33 1.0168 0.98569v1.9728l-1.0168 0.99255v16l1 1v2l-0.95278 0.87901-0.0472 16.121 1 1v2l-1 1-0.00002 16 1 1v2l-1 1v16s2.544-5.4028 34.791-5.7167l0.20933-0.0616 0.20934 0.0616c32.42-0.23 34.79 5.72 34.79 5.72v-16l-1-1v-2l1-1v-16l-1-1v-2l1-1v-16l-1-1v-2l1.005-0.98468-0.005-16.015-0.99996-1v-2l1-0.96539-0.0995-16.313s-2.9005-8.7216-34.836-8.7216z"/>
    <path id="path4229" stroke-width=".67808" fill="url(#radialGradient4432)" d="m609 459.36c0 3.0341-14.66 9.998-33.935 9.998s-34.065-6.2654-34.065-9.998c0-5.4292 14.725-9.7611 34-9.7611s34 4.3319 34 9.7611z"/>
    <g id="g4231" stroke-width=".42606">
     <path id="path4233" fill="url(#linearGradient4434)" d="m575.06 352.19c-23.95 0-34.06 8.19-34.06 8.19l-0.90625 1.7188s11.283-8.75 34.969-8.75c23.685 0 34.844 8.75 34.844 8.75l-0.9-1.72s-9.9844-8.1875-33.938-8.1875zm0 22.156c-23.95-0.01-34.06 7.03-34.06 7.03l-1 1s11.377-7.0312 35.062-7.0312 34.938 7.0312 34.938 7.0312l-1-1s-9.9844-7.0312-33.938-7.0312zm0 20c-23.95-0.01-34.06 7.03-34.06 7.03l-1 1s11.377-7.0312 35.062-7.0312 34.938 7.0312 34.938 7.0312l-1-1s-9.9844-7.0312-33.938-7.0312zm0 20c-23.95-0.01-34.06 7.03-34.06 7.03l-1 1s11.377-7.0312 35.062-7.0312 34.938 7.0312 34.938 7.0312l-1-1s-9.9844-7.0312-33.938-7.0312zm0 20c-23.95-0.01-34.06 7.03-34.06 7.03l-1 1s11.377-7.0312 35.062-7.0312 34.938 7.0312 34.938 7.0312l-1-1s-9.9844-7.0312-33.938-7.0312z"/>
     <path id="path4235" fill="url(#linearGradient4436)" d="m575.06 372.34c-23.85 0-34.06 7.04-34.06 7.04v2s10.31-7.0356 34.062-7.0312c23.76 0 33.94 7.03 33.94 7.03v-2s-10.084-7.0312-33.938-7.0312zm0 20c-23.85 0-34.06 7.04-34.06 7.04v2s10.31-7.0356 34.062-7.0312c23.76 0 33.94 7.03 33.94 7.03v-2s-10.084-7.0312-33.938-7.0312zm0 20c-23.85 0-34.06 7.04-34.06 7.04v2s10.31-7.0356 34.062-7.0312c23.76 0 33.94 7.03 33.94 7.03v-2s-10.084-7.0312-33.938-7.0312zm0 20c-23.85 0-34.06 7.04-34.06 7.04v2s10.31-7.0356 34.062-7.0312c23.76 0 33.94 7.03 33.94 7.03v-2s-10.084-7.0312-33.938-7.0312z"/>
     <path id="path4237" fill="url(#linearGradient4438)" d="m575.06 371.34c-23.65 0-35.06 7.04-35.06 7.04l1 1s10.179-7.035 34.062-7.0312c23.89 0 33.94 7.03 33.94 7.03l1-1s-11.285-7.0275-34.938-7.0312zm0 20c-23.65 0-35.06 7.04-35.06 7.04l1 1s10.179-7.035 34.062-7.0312c23.89 0 33.94 7.03 33.94 7.03l1-1s-11.285-7.0275-34.938-7.0312zm0 20c-23.65 0-35.06 7.04-35.06 7.04l1 1s10.179-7.035 34.062-7.0312c23.89 0 33.94 7.03 33.94 7.03l1-1s-11.285-7.0275-34.938-7.0312zm0 20c-23.65 0-35.06 7.04-35.06 7.04l1 1s10.179-7.035 34.062-7.0312c23.89 0 33.94 7.03 33.94 7.03l1-1s-11.285-7.0275-34.938-7.0312zm0 17.188c-28.6 0-35.06 9.85-35.06 9.85l1 1s5.711-9.8482 34.062-9.8438c28.35 0 33.94 9.84 33.94 9.84l1-1s-6.334-9.8438-34.938-9.8438z"/>
    </g>
   </g>
  </g>
 </g>
 <metadata>
  <rdf:RDF>
   <cc:Work>
    <dc:format>image/svg+xml</dc:format>
    <dc:type rdf:resource="http://purl.org/dc/dcmitype/StillImage"/>
    <cc:license rdf:resource="http://creativecommons.org/licenses/publicdomain/"/>
    <dc:publisher>
     <cc:Agent rdf:about="http://openclipart.org/">
      <dc:title>Openclipart</dc:title>
     </cc:Agent>
    </dc:publisher>
   </cc:Work>
   <cc:License rdf:about="http://creativecommons.org/licenses/publicdomain/">
    <cc:permits rdf:resource="http://creativecommons.org/ns#Reproduction"/>
    <cc:permits rdf:resource="http://creativecommons.org/ns#Distribution"/>
    <cc:permits rdf:resource="http://creativecommons.org/ns#DerivativeWorks"/>
   </cc:License>
  </rdf:RDF>
 </metadata>
</svg>
