<?xml version="1.0" encoding="utf-8"?>
<!-- Generator: Adobe Illustrator 15.1.0, SVG Export Plug-In  -->
<!DOCTYPE svg PUBLIC "-//W3C//DTD SVG 1.1//EN" "http://www.w3.org/Graphics/SVG/1.1/DTD/svg11.dtd" [
	<!ENTITY ns_flows "http://ns.adobe.com/Flows/1.0/">
]>
<svg version="1.1"
	 xmlns="http://www.w3.org/2000/svg" xmlns:xlink="http://www.w3.org/1999/xlink" xmlns:a="http://ns.adobe.com/AdobeSVGViewerExtensions/3.0/"
	 x="0px" y="0px" width="433px" height="307px" viewBox="-10.83 -8.095 433 307" enable-background="new -10.83 -8.095 433 307"
	 xml:space="preserve">
<defs>
</defs>
<path fill-rule="evenodd" clip-rule="evenodd" fill="#5A5A5A" d="M343.012,12.532c-0.167-0.167,0.133-0.8,0-1"/>
<path fill-rule="evenodd" clip-rule="evenodd" fill="#5A5A5A" d="M260.012,105.532c0.134-0.2-0.167-0.833,0-1s0.8,0.133,1,0
	c0,0.333,0,0.667,0,1C260.679,105.532,260.345,105.532,260.012,105.532z"/>
<path fill-rule="evenodd" clip-rule="evenodd" fill="#5A5A5A" d="M261.012,105.532c0-0.333,0-0.667,0-1c0.333,0,0.667,0,1,0
	c-0.134,0.2,0.167,0.833,0,1S261.212,105.399,261.012,105.532z"/>
<path fill-rule="evenodd" clip-rule="evenodd" fill="#5A5A5A" d="M262.012,104.532c12,0,24,0,36,0s24,0,36,0s24,0,36,0
	c6,0,12,0,18,0c1.333,0,2.667,0,4,0c0.667,0,1.333,0,2,0c1,0,2,0,3,0c1.333,0,2.667,0,4,0c0.667,0,1.333,0,2,0c1.333,0,2.667,0,4,0
	c0.133,0.2-0.167,0.833,0,1s0.8-0.133,1,0c0.333,0,0.667,0,1,0s0.667,0,1,0c0.133,0.2-0.167,0.833,0,1s0.8-0.133,1,0
	c0.133,0.2-0.167,0.833,0,1s0.8-0.133,1,0c0,0.333,0,0.667,0,1c0.333,0,0.667,0,1,0c0,0.333,0,0.667,0,1s0,0.667,0,1s0,0.667,0,1
	c0.333,0,0.667,0,1,0c0,14.333,0,28.667,0,43c0,7,0,14,0,21s0,14,0,21c0,14,0,28,0,42s0,28,0,42c-0.2,0.134-0.833-0.167-1,0
	s0.134,0.8,0,1c0,0.333,0,0.667,0,1s0,0.667,0,1c-0.2,0.134-0.833-0.167-1,0s0.134,0.8,0,1c-0.2,0.134-0.833-0.167-1,0
	s0.134,0.8,0,1c-0.333,0-0.667,0-1,0c0,0.333,0,0.667,0,1c-0.333,0-0.667,0-1,0s-0.667,0-1,0c-0.2,0.134-0.833-0.167-1,0
	s0.134,0.8,0,1c-12.333,0-24.667,0-37,0c-12,0-24,0-36,0s-24,0-36,0s-24,0-36,0c-0.134-0.2,0.167-0.833,0-1s-0.8,0.134-1,0
	c-0.333,0-0.667,0-1,0s-0.667,0-1,0c-0.134-0.2,0.167-0.833,0-1s-0.8,0.134-1,0c-0.134-0.2,0.167-0.833,0-1s-0.8,0.134-1,0
	c0-0.333,0-0.667,0-1c-0.333,0-0.667,0-1,0c0-0.333,0-0.667,0-1s0-0.667,0-1c-0.134-0.2,0.167-0.833,0-1s-0.8,0.134-1,0
	c0-1.333,0-2.667,0-4c0-1,0-2,0-3c0-0.667,0-1.333,0-2c0-1,0-2,0-3c0-0.667,0-1.333,0-2c0-1,0-2,0-3c0-0.667,0-1.333,0-2
	c0-1,0-2,0-3c0-7,0-14,0-21s0-14,0-21s0-14,0-21c0-14,0-28,0-42s0-28,0-42c0.2-0.133,0.833,0.167,1,0s-0.134-0.8,0-1
	c0-0.333,0-0.667,0-1s0-0.667,0-1c0.2-0.133,0.833,0.167,1,0s-0.134-0.8,0-1c0.2-0.133,0.833,0.167,1,0s-0.134-0.8,0-1
	c0.333,0,0.667,0,1,0c0-0.333,0-0.667,0-1c0.333,0,0.667,0,1,0s0.667,0,1,0c0.2-0.133,0.833,0.167,1,0
	S261.878,104.732,262.012,104.532z M276.012,160.532c0,11.667,0,23.333,0,35c0,2.667,0,5.333,0,8c0,3,0,6,0,9c0,6,0,12,0,18
	c0,12,0,24,0,36c4.667,0,9.333,0,14,0c17,0,34,0,51,0c17.333,0,34.667,0,52,0c0-2.667,0-5.333,0-8c0-5.333,0-10.667,0-16
	c0-2.667,0-5.333,0-8c0-3,0-6,0-9c0-5.333,0-10.667,0-16c0-2.667,0-5.333,0-8c0-3,0-6,0-9c0-22.333,0-44.667,0-67
	c-4.667,0-9.333,0-14,0c-8.333,0-16.667,0-25,0c-4.333,0-8.667,0-13,0s-8.667,0-13,0s-8.667,0-13,0s-8.667,0-13,0s-8.667,0-13,0
	s-8.667,0-13,0C276.012,137.199,276.012,148.865,276.012,160.532z"/>
<path fill-rule="evenodd" clip-rule="evenodd" fill="#5A5A5A" d="M407.012,104.532c0.333,0,0.667,0,1,0c0,0.333,0,0.667,0,1
	c-0.2-0.133-0.833,0.167-1,0S407.145,104.732,407.012,104.532z"/>
<path fill-rule="evenodd" clip-rule="evenodd" fill="#5A5A5A" d="M408.012,105.532c0-0.333,0-0.667,0-1c0.2,0.133,0.833-0.167,1,0
	s-0.133,0.8,0,1C408.679,105.532,408.345,105.532,408.012,105.532z"/>
<path fill-rule="evenodd" clip-rule="evenodd" fill="#5A5A5A" d="M258.012,106.532c0.134-0.2-0.167-0.833,0-1s0.8,0.133,1,0
	c0,0.333,0,0.667,0,1C258.679,106.532,258.345,106.532,258.012,106.532z"/>
<path fill-rule="evenodd" clip-rule="evenodd" fill="#5A5A5A" d="M410.012,105.532c0.2,0.133,0.833-0.167,1,0s-0.133,0.8,0,1
	c-0.2-0.133-0.833,0.167-1,0S410.145,105.732,410.012,105.532z"/>
<path fill-rule="evenodd" clip-rule="evenodd" fill="#5A5A5A" d="M257.012,107.532c0.134-0.2-0.167-0.833,0-1s0.8,0.133,1,0
	c-0.134,0.2,0.167,0.833,0,1S257.212,107.399,257.012,107.532z"/>
<path fill-rule="evenodd" clip-rule="evenodd" fill="#5A5A5A" d="M411.012,106.532c0.2,0.133,0.833-0.167,1,0s-0.133,0.8,0,1
	c-0.2-0.133-0.833,0.167-1,0S411.145,106.732,411.012,106.532z"/>
<path fill-rule="evenodd" clip-rule="evenodd" fill="#5A5A5A" d="M256.012,108.532c0-0.333,0-0.667,0-1c0.333,0,0.667,0,1,0
	c-0.134,0.2,0.167,0.833,0,1S256.212,108.399,256.012,108.532z"/>
<path fill-rule="evenodd" clip-rule="evenodd" fill="#5A5A5A" d="M412.012,107.532c0.2,0.133,0.833-0.167,1,0s-0.133,0.8,0,1
	c-0.333,0-0.667,0-1,0C412.012,108.199,412.012,107.866,412.012,107.532z"/>
<path fill-rule="evenodd" clip-rule="evenodd" fill="#5A5A5A" d="M255.012,110.532c0.134-0.2-0.167-0.833,0-1s0.8,0.133,1,0
	c0,0.333,0,0.667,0,1C255.679,110.532,255.345,110.532,255.012,110.532z"/>
<path fill-rule="evenodd" clip-rule="evenodd" fill="#5A5A5A" d="M413.012,110.532c0-0.333,0-0.667,0-1c0.333,0,0.667,0,1,0
	c0,0.333,0,0.667,0,1C413.679,110.532,413.345,110.532,413.012,110.532z"/>
<path fill-rule="evenodd" clip-rule="evenodd" fill="#5A5A5A" d="M255.012,111.532c0-0.333,0-0.667,0-1c0.333,0,0.667,0,1,0
	c-0.134,0.2,0.167,0.833,0,1S255.212,111.399,255.012,111.532z"/>
<path fill-rule="evenodd" clip-rule="evenodd" fill="#5A5A5A" d="M413.012,110.532c0.333,0,0.667,0,1,0c0,0.333,0,0.667,0,1
	c-0.333,0-0.667,0-1,0C413.012,111.199,413.012,110.866,413.012,110.532z"/>
<path fill-rule="evenodd" clip-rule="evenodd" fill="#5A5A5A" d="M147.012,245.532c0.133-0.2-0.167-0.833,0-1s0.8,0.134,1,0
	c-0.133,0.2,0.167,0.833,0,1S147.212,245.398,147.012,245.532z"/>
<path fill-rule="evenodd" clip-rule="evenodd" fill="#5A5A5A" d="M148.012,244.532c10.667,0,21.333,0,32,0c5.333,0,10.667,0,16,0
	c2.667,0,5.333,0,8,0c3,0,6,0,9,0c0,0.333,0,0.667,0,1c0.2,0.134,0.833-0.167,1,0s-0.134,0.8,0,1c0.333,0,0.667,0,1,0
	c0,0.667,0,1.333,0,2c0,0.333,0,0.667,0,1s0,0.667,0,1c0.333,0,0.667,0,1,0c0,0.333,0,0.667,0,1s0,0.667,0,1
	c0.134,0.2-0.167,0.833,0,1s0.8-0.134,1,0c0,0.667,0,1.333,0,2c0,0.333,0,0.667,0,1s0,0.667,0,1c0.333,0,0.667,0,1,0
	c0,0.667,0,1.333,0,2c0,0.333,0,0.667,0,1s0,0.667,0,1c0.333,0,0.667,0,1,0c0,0.333,0,0.667,0,1s0,0.667,0,1
	c0.134,0.2-0.167,0.833,0,1s0.8-0.134,1,0c0,0.667,0,1.333,0,2c0,0.333,0,0.667,0,1s0,0.667,0,1c0.333,0,0.667,0,1,0
	c0,0.333,0,0.667,0,1s0,0.667,0,1c0.134,0.2-0.167,0.833,0,1s0.8-0.134,1,0c0,0.333,0,0.667,0,1c0.123,0.251-0.154,0.77,0,1
	c0.106,0.16,0.86-0.14,1,0c0.167,0.167-0.134,0.8,0,1c0.333,0,0.667,0,1,0c0,0.667,0,1.333,0,2c0,0.333,0,0.667,0,1s0,0.667,0,1
	c0.333,0,0.667,0,1,0c0,0.667,0,1.333,0,2c0,0.333,0,0.667,0,1s0,0.667,0,1c-0.2,0.134-0.833-0.167-1,0s0.134,0.8,0,1
	c0,0.333,0,0.667,0,1c-0.2,0.134-0.833-0.167-1,0s0.134,0.8,0,1c-0.333,0-0.667,0-1,0c0,0.333,0,0.667,0,1c-0.667,0-1.333,0-2,0
	c-0.333,0-0.667,0-1,0s-0.667,0-1,0c-0.2,0.134-0.833-0.167-1,0s0.134,0.8,0,1c-2,0-4,0-6,0c-0.134-0.2,0.167-0.833,0-1
	c-0.088-0.088-0.862,0-1,0c-0.333,0-0.667,0-1,0c-1.333,0-2.667,0-4,0c-5.667,0-11.333,0-17,0c-3,0-6,0-9,0c-2.667,0-5.333,0-8,0
	c-3,0-6,0-9,0c-2.667,0-5.333,0-8,0c-5.333,0-10.667,0-16,0c-0.333,0-0.667,0-1,0c0-0.333,0-0.667,0-1c-0.133-0.2,0.167-0.833,0-1
	s-0.8,0.134-1,0c0-0.333,0-0.667,0-1s0-0.667,0-1c0-0.667,0-1.333,0-2c0.2-0.134,0.833,0.167,1,0s-0.133-0.8,0-1
	c0-0.333,0-0.667,0-1c0-1,0-2,0-3c0.2-0.134,0.833,0.167,1,0s-0.133-0.8,0-1s-0.167-0.833,0-1s0.8,0.134,1,0c0-0.333,0-0.667,0-1
	c0-1,0-2,0-3c0.2-0.134,0.833,0.167,1,0s-0.133-0.8,0-1c0-1,0-2,0-3c0.333,0,0.667,0,1,0c0.2-0.134,0.833,0.167,1,0s-0.133-0.8,0-1
	c0-1,0-2,0-3c0.2-0.134,0.833,0.167,1,0s-0.133-0.8,0-1c0-1,0-2,0-3c0.2-0.134,0.833,0.167,1,0c0.122-0.122-0.044-0.822,0-1
	c0.071-0.284,0-0.706,0-1c0-0.667,0-1.333,0-2c0.2-0.134,0.833,0.167,1,0s-0.133-0.8,0-1c0-0.333,0-0.667,0-1s0-0.667,0-1
	c0.2-0.134,0.833,0.167,1,0s-0.133-0.8,0-1c0-0.333,0-0.667,0-1c0.2-0.134,0.833,0.167,1,0s-0.133-0.8,0-1c0-0.333,0-0.667,0-1
	s0-0.667,0-1c0.2-0.134,0.833,0.167,1,0S147.878,244.732,148.012,244.532z"/>
<path fill-rule="evenodd" clip-rule="evenodd" fill="#5A5A5A" d="M146.012,247.532c0.133-0.2-0.167-0.833,0-1s0.8,0.134,1,0
	c0,0.333,0,0.667,0,1C146.678,247.532,146.345,247.532,146.012,247.532z"/>
<path fill-rule="evenodd" clip-rule="evenodd" fill="#5A5A5A" d="M146.012,248.532c0-0.333,0-0.667,0-1c0.333,0,0.667,0,1,0
	c-0.133,0.2,0.167,0.833,0,1S146.212,248.398,146.012,248.532z"/>
<path fill-rule="evenodd" clip-rule="evenodd" fill="#5A5A5A" d="M215.012,249.532c0-0.333,0-0.667,0-1c0.2,0.134,0.833-0.167,1,0
	s-0.134,0.8,0,1C215.679,249.532,215.345,249.532,215.012,249.532z"/>
<path fill-rule="evenodd" clip-rule="evenodd" fill="#5A5A5A" d="M145.012,250.532c0.133-0.2-0.167-0.833,0-1s0.8,0.134,1,0
	c-0.133,0.2,0.167,0.833,0,1S145.212,250.398,145.012,250.532z"/>
<path fill-rule="evenodd" clip-rule="evenodd" fill="#5A5A5A" d="M215.012,249.532c0.333,0,0.667,0,1,0c0,0.333,0,0.667,0,1
	c-0.333,0-0.667,0-1,0C215.012,250.199,215.012,249.865,215.012,249.532z"/>
<path fill-rule="evenodd" clip-rule="evenodd" fill="#5A5A5A" d="M144.012,252.532c0.133-0.2-0.167-0.833,0-1s0.8,0.134,1,0
	c0,0.333,0,0.667,0,1C144.678,252.532,144.345,252.532,144.012,252.532z"/>
<path fill-rule="evenodd" clip-rule="evenodd" fill="#5A5A5A" d="M216.012,252.532c0-0.333,0-0.667,0-1c0.333,0,0.667,0,1,0
	c0,0.333,0,0.667,0,1C216.679,252.532,216.345,252.532,216.012,252.532z"/>
<path fill-rule="evenodd" clip-rule="evenodd" fill="#5A5A5A" d="M144.012,253.532c0-0.333,0-0.667,0-1c0.333,0,0.667,0,1,0
	c-0.133,0.2,0.167,0.833,0,1S144.212,253.398,144.012,253.532z"/>
<path fill-rule="evenodd" clip-rule="evenodd" fill="#5A5A5A" d="M216.012,252.532c0.333,0,0.667,0,1,0c0,0.333,0,0.667,0,1
	c-0.2-0.134-0.833,0.167-1,0S216.146,252.732,216.012,252.532z"/>
<path fill-rule="evenodd" clip-rule="evenodd" fill="#5A5A5A" d="M217.012,256.532c0-0.333,0-0.667,0-1c0.333,0,0.667,0,1,0
	c0,0.333,0,0.667,0,1C217.679,256.532,217.345,256.532,217.012,256.532z"/>
<path fill-rule="evenodd" clip-rule="evenodd" fill="#5A5A5A" d="M217.012,256.532c0.333,0,0.667,0,1,0c0,0.333,0,0.667,0,1
	c-0.333,0-0.667,0-1,0C217.012,257.199,217.012,256.865,217.012,256.532z"/>
<path fill-rule="evenodd" clip-rule="evenodd" fill="#5A5A5A" d="M143.012,257.532c0,1,0,2,0,3c-0.333,0-0.667,0-1,0c0-1,0-2,0-3
	C142.345,257.532,142.678,257.532,143.012,257.532z"/>
<path fill-rule="evenodd" clip-rule="evenodd" fill="#5A5A5A" d="M218.012,260.532c0-0.333,0-0.667,0-1c0.2,0.134,0.833-0.167,1,0
	s-0.134,0.8,0,1C218.679,260.532,218.345,260.532,218.012,260.532z"/>
<path fill-rule="evenodd" clip-rule="evenodd" fill="#5A5A5A" d="M142.012,261.532c0-0.333,0-0.667,0-1c0.333,0,0.667,0,1,0
	c-0.133,0.2,0.167,0.833,0,1S142.212,261.398,142.012,261.532z"/>
<path fill-rule="evenodd" clip-rule="evenodd" fill="#5A5A5A" d="M218.012,260.532c0.333,0,0.667,0,1,0c0,0.333,0,0.667,0,1
	c-0.333,0-0.667,0-1,0C218.012,261.199,218.012,260.865,218.012,260.532z"/>
<path fill-rule="evenodd" clip-rule="evenodd" fill="#5A5A5A" d="M142.012,261.532c0,1,0,2,0,3c-0.333,0-0.667,0-1,0c0-1,0-2,0-3
	C141.345,261.532,141.678,261.532,142.012,261.532z"/>
<path fill-rule="evenodd" clip-rule="evenodd" fill="#5A5A5A" d="M219.012,263.532c0-0.333,0-0.667,0-1c0.333,0,0.667,0,1,0
	c0,0.333,0,0.667,0,1C219.679,263.532,219.345,263.532,219.012,263.532z"/>
<path fill-rule="evenodd" clip-rule="evenodd" fill="#5A5A5A" d="M219.012,263.532c0.333,0,0.667,0,1,0c0,0.333,0,0.667,0,1
	c-0.2-0.134-0.833,0.167-1,0S219.146,263.732,219.012,263.532z"/>
<path fill-rule="evenodd" clip-rule="evenodd" fill="#5A5A5A" d="M140.012,265.532c0.133-0.2-0.167-0.833,0-1s0.8,0.134,1,0
	c0,0.333,0,0.667,0,1C140.678,265.532,140.345,265.532,140.012,265.532z"/>
<path fill-rule="evenodd" clip-rule="evenodd" fill="#5A5A5A" d="M141.012,265.532c0-0.333,0-0.667,0-1c0.333,0,0.667,0,1,0
	c-0.133,0.2,0.167,0.833,0,1S141.212,265.398,141.012,265.532z"/>
<path fill-rule="evenodd" clip-rule="evenodd" fill="#5A5A5A" d="M220.012,267.532c0-0.333,0-0.667,0-1c0.2,0.134,0.833-0.167,1,0
	s-0.134,0.8,0,1C220.679,267.532,220.345,267.532,220.012,267.532z"/>
<path fill-rule="evenodd" clip-rule="evenodd" fill="#5A5A5A" d="M220.012,267.532c0.333,0,0.667,0,1,0c0,0.333,0,0.667,0,1
	c-0.333,0-0.667,0-1,0C220.012,268.199,220.012,267.865,220.012,267.532z"/>
<path fill-rule="evenodd" clip-rule="evenodd" fill="#5A5A5A" d="M139.012,269.532c0.133-0.2-0.167-0.833,0-1s0.8,0.134,1,0
	c-0.133,0.2,0.167,0.833,0,1S139.212,269.398,139.012,269.532z"/>
<path fill-rule="evenodd" clip-rule="evenodd" fill="#5A5A5A" d="M221.012,270.532c0-0.333,0-0.667,0-1c0.2,0.134,0.833-0.167,1,0
	s-0.134,0.8,0,1C221.679,270.532,221.345,270.532,221.012,270.532z"/>
<path fill-rule="evenodd" clip-rule="evenodd" fill="#5A5A5A" d="M221.012,270.532c0.333,0,0.667,0,1,0c0,0.333,0,0.667,0,1
	c-0.2-0.134-0.833,0.167-1,0S221.146,270.732,221.012,270.532z"/>
<path fill-rule="evenodd" clip-rule="evenodd" fill="#5A5A5A" d="M137.012,275.532c0-0.333,0-0.667,0-1c0.333,0,0.667,0,1,0
	c-0.133,0.2,0.167,0.833,0,1S137.212,275.398,137.012,275.532z"/>
<path fill-rule="evenodd" clip-rule="evenodd" fill="#5A5A5A" d="M224.012,277.532c0-0.333,0-0.667,0-1c0.333,0,0.667,0,1,0
	c0,0.333,0,0.667,0,1C224.679,277.532,224.345,277.532,224.012,277.532z"/>
<path fill-rule="evenodd" clip-rule="evenodd" fill="#5A5A5A" d="M224.012,277.532c0.333,0,0.667,0,1,0c0,0.333,0,0.667,0,1
	c-0.333,0-0.667,0-1,0C224.012,278.199,224.012,277.865,224.012,277.532z"/>
<path fill-rule="evenodd" clip-rule="evenodd" fill="#5A5A5A" d="M136.012,279.532c0.133-0.2-0.167-0.833,0-1s0.8,0.134,1,0
	c0,0.333,0,0.667,0,1C136.678,279.532,136.345,279.532,136.012,279.532z"/>
<path fill-rule="evenodd" clip-rule="evenodd" fill="#5A5A5A" d="M136.012,280.532c0-0.333,0-0.667,0-1c0.333,0,0.667,0,1,0
	c-0.133,0.2,0.167,0.833,0,1S136.212,280.398,136.012,280.532z"/>
<path fill-rule="evenodd" clip-rule="evenodd" fill="#5A5A5A" d="M136.012,280.532c0,0.667,0,1.333,0,2c-0.333,0-0.667,0-1,0
	c0-0.333,0-0.667,0-1c0-0.138-0.088-0.912,0-1C135.178,280.365,135.812,280.666,136.012,280.532z"/>
<path fill-rule="evenodd" clip-rule="evenodd" fill="#5A5A5A" d="M225.012,281.532c0-0.333,0-0.667,0-1c0.2,0.134,0.833-0.167,1,0
	s-0.134,0.8,0,1C225.679,281.532,225.345,281.532,225.012,281.532z"/>
<path fill-rule="evenodd" clip-rule="evenodd" fill="#5A5A5A" d="M255.012,281.532c0-0.333,0-0.667,0-1c0.2,0.134,0.833-0.167,1,0
	s-0.134,0.8,0,1C255.679,281.532,255.345,281.532,255.012,281.532z"/>
<path fill-rule="evenodd" clip-rule="evenodd" fill="#5A5A5A" d="M413.012,281.532c0.134-0.2-0.167-0.833,0-1s0.8,0.134,1,0
	c0,0.333,0,0.667,0,1C413.679,281.532,413.345,281.532,413.012,281.532z"/>
<path fill-rule="evenodd" clip-rule="evenodd" fill="#5A5A5A" d="M225.012,282.532c0-0.333,0-0.667,0-1c0.333,0,0.667,0,1,0
	c0,0.333,0,0.667,0,1C225.679,282.532,225.345,282.532,225.012,282.532z"/>
<path fill-rule="evenodd" clip-rule="evenodd" fill="#5A5A5A" d="M255.012,281.532c0.333,0,0.667,0,1,0c0,0.333,0,0.667,0,1
	c-0.2-0.134-0.833,0.167-1,0S255.146,281.732,255.012,281.532z"/>
<path fill-rule="evenodd" clip-rule="evenodd" fill="#5A5A5A" d="M413.012,282.532c0-0.333,0-0.667,0-1c0.333,0,0.667,0,1,0
	c0,0.333,0,0.667,0,1C413.679,282.532,413.345,282.532,413.012,282.532z"/>
<path fill-rule="evenodd" clip-rule="evenodd" fill="#5A5A5A" d="M135.012,282.532c0.333,0,0.667,0,1,0c0,0.333,0,0.667,0,1
	c-0.2-0.134-0.833,0.167-1,0S135.145,282.732,135.012,282.532z"/>
<path fill-rule="evenodd" clip-rule="evenodd" fill="#5A5A5A" d="M224.012,283.532c0.134-0.2-0.167-0.833,0-1s0.8,0.134,1,0
	c0,0.333,0,0.667,0,1C224.679,283.532,224.345,283.532,224.012,283.532z"/>
<path fill-rule="evenodd" clip-rule="evenodd" fill="#5A5A5A" d="M225.012,283.532c0-0.333,0-0.667,0-1c0.333,0,0.667,0,1,0
	c0,0.333,0,0.667,0,1C225.679,283.532,225.345,283.532,225.012,283.532z"/>
<path fill-rule="evenodd" clip-rule="evenodd" fill="#5A5A5A" d="M1.012,283.532c0.2,0.134,0.833-0.167,1,0s-0.133,0.8,0,1
	c-0.333,0-0.667,0-1,0C1.012,284.199,1.012,283.865,1.012,283.532z"/>
<path fill-rule="evenodd" clip-rule="evenodd" fill="#5A5A5A" d="M224.012,284.532c0-0.333,0-0.667,0-1c0.333,0,0.667,0,1,0
	c-0.134,0.2,0.167,0.833,0,1S224.212,284.398,224.012,284.532z"/>
<path fill-rule="evenodd" clip-rule="evenodd" fill="#5A5A5A" d="M256.012,283.532c0.333,0,0.667,0,1,0c0,0.333,0,0.667,0,1
	c-0.2-0.134-0.833,0.167-1,0S256.146,283.732,256.012,283.532z"/>
<path fill-rule="evenodd" clip-rule="evenodd" fill="#5A5A5A" d="M412.012,284.532c0.134-0.2-0.167-0.833,0-1s0.8,0.134,1,0
	c-0.134,0.2,0.167,0.833,0,1S412.212,284.398,412.012,284.532z"/>
<path fill-rule="evenodd" clip-rule="evenodd" fill="#5A5A5A" d="M136.012,284.532c0.2,0.134,0.833-0.167,1,0s-0.133,0.8,0,1
	c-0.2-0.134-0.833,0.167-1,0S136.145,284.732,136.012,284.532z"/>
<path fill-rule="evenodd" clip-rule="evenodd" fill="#5A5A5A" d="M223.012,285.532c0.134-0.2-0.167-0.833,0-1s0.8,0.134,1,0
	c-0.134,0.2,0.167,0.833,0,1S223.212,285.398,223.012,285.532z"/>
<path fill-rule="evenodd" clip-rule="evenodd" fill="#5A5A5A" d="M257.012,284.532c0.2,0.134,0.833-0.167,1,0s-0.134,0.8,0,1
	c-0.2-0.134-0.833,0.167-1,0S257.146,284.732,257.012,284.532z"/>
<path fill-rule="evenodd" clip-rule="evenodd" fill="#5A5A5A" d="M411.012,285.532c0.134-0.2-0.167-0.833,0-1s0.8,0.134,1,0
	c-0.134,0.2,0.167,0.833,0,1S411.212,285.398,411.012,285.532z"/>
<path fill-rule="evenodd" clip-rule="evenodd" fill="#5A5A5A" d="M222.012,286.532c0-0.333,0-0.667,0-1c0.333,0,0.667,0,1,0
	c-0.134,0.2,0.167,0.833,0,1S222.212,286.398,222.012,286.532z"/>
<path fill-rule="evenodd" clip-rule="evenodd" fill="#5A5A5A" d="M258.012,285.532c0.2,0.134,0.833-0.167,1,0s-0.134,0.8,0,1
	c-0.333,0-0.667,0-1,0C258.012,286.199,258.012,285.865,258.012,285.532z"/>
<path fill-rule="evenodd" clip-rule="evenodd" fill="#5A5A5A" d="M410.012,286.532c0-0.333,0-0.667,0-1c0.333,0,0.667,0,1,0
	c-0.134,0.2,0.167,0.833,0,1S410.212,286.398,410.012,286.532z"/>
<path fill-rule="evenodd" clip-rule="evenodd" fill="#5A5A5A" d="M137.012,287.532c0-0.333,0-0.667,0-1c0.333,0,0.667,0,1,0
	c0,0.333,0,0.667,0,1C137.678,287.532,137.345,287.532,137.012,287.532z"/>
<path fill-rule="evenodd" clip-rule="evenodd" fill="#5A5A5A" d="M138.012,287.532c0-0.333,0-0.667,0-1c5.333,0,10.667,0,16,0
	c2.667,0,5.333,0,8,0c3,0,6,0,9,0c2.667,0,5.333,0,8,0c3,0,6,0,9,0c5.667,0,11.333,0,17,0c0,0.333,0,0.667,0,1
	c-5.667,0-11.333,0-17,0c-3,0-6,0-9,0c-2.667,0-5.333,0-8,0c-3,0-6,0-9,0c-2.667,0-5.333,0-8,0
	C148.678,287.532,143.345,287.532,138.012,287.532z"/>
<path fill-rule="evenodd" clip-rule="evenodd" fill="#5A5A5A" d="M205.012,287.532c0-0.333,0-0.667,0-1c1.333,0,2.667,0,4,0
	c0,0.333,0,0.667,0,1C207.679,287.532,206.345,287.532,205.012,287.532z"/>
<path fill-rule="evenodd" clip-rule="evenodd" fill="#5A5A5A" d="M209.012,287.532c0-0.333,0-0.667,0-1c0.333,0,0.667,0,1,0
	c0.138,0,0.912-0.088,1,0c0.167,0.167-0.134,0.8,0,1C210.345,287.532,209.679,287.532,209.012,287.532z"/>
<path fill-rule="evenodd" clip-rule="evenodd" fill="#5A5A5A" d="M217.012,287.532c0.134-0.2-0.167-0.833,0-1s0.8,0.134,1,0
	c0,0.333,0,0.667,0,1C217.679,287.532,217.345,287.532,217.012,287.532z"/>
<path fill-rule="evenodd" clip-rule="evenodd" fill="#5A5A5A" d="M218.012,287.532c0-0.333,0-0.667,0-1c0.333,0,0.667,0,1,0
	c0,0.333,0,0.667,0,1C218.679,287.532,218.345,287.532,218.012,287.532z"/>
<path fill-rule="evenodd" clip-rule="evenodd" fill="#5A5A5A" d="M219.012,287.532c0-0.333,0-0.667,0-1c0.333,0,0.667,0,1,0
	c0,0.333,0,0.667,0,1C219.679,287.532,219.345,287.532,219.012,287.532z"/>
<path fill-rule="evenodd" clip-rule="evenodd" fill="#5A5A5A" d="M260.012,287.532c0-0.333,0-0.667,0-1c0.333,0,0.667,0,1,0
	c0,0.333,0,0.667,0,1C260.679,287.532,260.345,287.532,260.012,287.532z"/>
<path fill-rule="evenodd" clip-rule="evenodd" fill="#5A5A5A" d="M261.012,287.532c0-0.333,0-0.667,0-1c0.2,0.134,0.833-0.167,1,0
	s-0.134,0.8,0,1C261.679,287.532,261.345,287.532,261.012,287.532z"/>
<path fill-rule="evenodd" clip-rule="evenodd" fill="#5A5A5A" d="M407.012,287.532c0.134-0.2-0.167-0.833,0-1s0.8,0.134,1,0
	c0,0.333,0,0.667,0,1C407.679,287.532,407.345,287.532,407.012,287.532z"/>
<path fill-rule="evenodd" clip-rule="evenodd" fill="#5A5A5A" d="M408.012,287.532c0-0.333,0-0.667,0-1c0.333,0,0.667,0,1,0
	c0,0.333,0,0.667,0,1C408.679,287.532,408.345,287.532,408.012,287.532z"/>
<path fill-rule="evenodd" clip-rule="evenodd" fill="#5A5A5A" d="M222.012,272.532c0.333,0,0.667,0,1,0c0.134,0.2-0.167,0.833,0,1
	c0.14,0.14,0.894-0.16,1,0c0.154,0.23-0.123,0.749,0,1c-0.333,0-0.667,0-1,0c-0.134-0.2,0.167-0.833,0-1c-0.14-0.14-0.894,0.16-1,0
	C221.857,273.302,222.135,272.783,222.012,272.532z"/>
<path fill-rule="evenodd" clip-rule="evenodd" fill="#5A5A5A" d="M213.012,244.532c0.333,0,0.667,0,1,0c0.134,0.2-0.167,0.833,0,1
	c0.14,0.14,0.894-0.16,1,0c0.154,0.23-0.123,0.749,0,1c-0.333,0-0.667,0-1,0c-0.134-0.2,0.167-0.833,0-1s-0.8,0.134-1,0
	C213.012,245.199,213.012,244.865,213.012,244.532z"/>
<path fill-rule="evenodd" clip-rule="evenodd" fill="#5A5A5A" d="M137.012,274.532c0-0.333,0-0.667,0-1c0.2-0.134,0.833,0.167,1,0
	c0.14-0.14-0.16-0.894,0-1c0.231-0.154,0.749,0.123,1,0c0,0.333,0,0.667,0,1c-0.2,0.134-0.833-0.167-1,0s0.133,0.8,0,1
	C137.678,274.532,137.345,274.532,137.012,274.532z"/>
<path fill-rule="evenodd" clip-rule="evenodd" fill="#5A5A5A" d="M343.012,15.421c-0.167-0.171,0.133-0.822,0-1.028v-3.084
	c-0.2-0.137-0.833,0.171-1,0s0.133-0.822,0-1.028V8.225h-1V7.197c-0.2-0.137-0.833,0.171-1,0c-0.167-0.171,0.133-0.822,0-1.028
	c-0.2-0.137-0.833,0.171-1,0c-0.167-0.171,0.133-0.822,0-1.028c-0.133-0.206,0.167-0.857,0-1.028c-0.167-0.171-0.8,0.137-1,0h-1
	V3.084c-0.2-0.137-0.833,0.171-1,0c-0.167-0.171,0.133-0.822,0-1.028h-1c-0.2-0.137-0.833,0.171-1,0s0.133-0.822,0-1.028h-3
	c-0.2-0.137-0.833,0.171-1,0c-0.167-0.171,0.133-0.822,0-1.028h-298C32,0.017,32,0.044,31.994,0.067
	c-0.014,0-0.027-0.002-0.042-0.002L32.012,0c-7.738,0-14,6.897-14,15.421l0.03-0.032c0,0.006,0.002,0.012,0.003,0.018
	c-0.001,0.005-0.002,0.009-0.002,0.014h-0.03v174.777h21V21.59h284v83.276h21V15.421C343.812,15.284,343.179,15.593,343.012,15.421z
	"/>
<path fill-rule="evenodd" clip-rule="evenodd" fill="#5A5A5A" d="M60.012,281.08v-42.028c0.017-0.001,0.034-0.004,0.052-0.006v0.052
	h194.948v-22.131H60.063v0.029c-0.018,0-0.034,0.008-0.052,0.009v-23.473c0-3.316-2.684-6-6-6H5.49c-0.004,0-0.006-0.002-0.01-0.002
	s-0.006,0.002-0.01,0.002H5.012l-0.961,0.961c-0.102,0.016-0.205,0.027-0.288,0.067c-0.269-0.027-0.63-0.149-0.751-0.028
	c-0.167,0.167,0.133,0.8,0,1c-0.2,0.134-0.833-0.167-1,0c-0.109,0.109-0.022,0.416,0.016,0.673c-0.051,0.104-0.084,0.212-0.1,0.327
	H1.012v1l-1,1v88.558c-0.016,0.109-0.016,0.215,0,0.324v0.118c0.005,0.003,0.014,0.004,0.021,0.006
	c0.016,0.062,0.056,0.11,0.081,0.168c0.002,0.173,0.056,0.337,0.135,0.487c0.358,3.027,3.316,5.391,6.944,5.391v-0.052h45.82
	c0.015-0.021,0.01-0.063,0.014-0.095c0.048-0.001,0.083-0.021,0.126-0.026l-0.141,0.121c0.34,0,0.672-0.028,1-0.068v0.068
	l0.078-0.078 M60.012,281.647 M17.012,196.532h25v2h-25V196.532z M34.012,275.532v5c-0.2,0.134-0.833-0.167-1,0
	c-0.14,0.14,0.16,0.894,0,1c-0.231,0.154-0.749-0.123-1,0h-5c-0.133-0.2,0.167-0.833,0-1c-0.14-0.14-0.894,0.16-1,0
	c-0.154-0.23,0.123-0.749,0-1v-4c0.133-0.2-0.167-0.833,0-1c0.069-0.069,0.219-0.058,0.384-0.03l-0.384,0.03h0.565
	c0.177,0.031,0.348,0.058,0.435,0c0.133-0.2-0.167-0.833,0-1s0.8,0.134,1,0h4c0.2,0.134,0.833-0.167,1,0s-0.133,0.8,0,1
	c0.2,0.134,0.833-0.167,1,0S33.878,275.332,34.012,275.532z M55.012,269.532h-50v-64h50V269.532z"/>
<path fill-rule="evenodd" clip-rule="evenodd" fill="#5A5A5A" d="M54.012,287.464c3.316,0,6-2.855,6-6.384"/>
<polyline fill-rule="evenodd" clip-rule="evenodd" fill="#5A5A5A" points="214.5,244.25 226.785,282.806 225.762,284.835 
	223.714,285.85 221.613,287.371 219.619,287.879 135.672,287.879 133.385,284.354 133.624,281.791 133.624,280.776 145.909,244.25 
	213.988,244.251 "/>
<path fill-rule="evenodd" clip-rule="evenodd" fill="#5A5A5A" d="M329.952,0.032l0.093,0.103c-0.041-0.005-0.07-0.023-0.114-0.023
	c-1.138,0-1.269,1.551-0.4,1.918c0.147,0.104,0.321,0.181,0.55,0.181c0.635,0,0.953-0.484,0.964-0.977l11.629,12.811
	c-0.617,0.045-0.909,0.558-0.876,1.059c-0.02,0.293,0.082,0.584,0.283,0.793c0.149,0.273,0.414,0.481,0.821,0.481
	c0.654,0,0.974-0.514,0.964-1.021l0.087,0.095C343.952,6.93,337.69,0.032,329.952,0.032z"/>
</svg>
